…
## Plot with highcharter stock type

```r
rates <- diseases %>% group_by(disease, year) %>%
    summarise(rate = sum(count, na.rm = T) / sum(population, na.rm = T) * 1e6) %>%
    pivot_wider(names_from = disease, values_from = rate) %>%
    mutate(year = as.Date(as.character(year), format = "%Y"))
rates
```

```
## # A tibble: 84 x 8
##    year       `Hepatitis A` Measles Mumps Pertussis Polio Rubella Smallpox
##    <date>             <dbl>   <dbl> <dbl>     <dbl> <dbl>   <dbl>    <dbl>
##  1 1966-12-12          167.  1036.    NA       0     0      231.        NA
##  2 1967-12-12          195.   302.    NA       0     0      215.        NA
##  3 1968-12-12          228.   115.   718.      0     0      241.        NA
##  4 1969-12-12          229.   120.   405.      0     0      262.        NA
##  5 1970-12-12          272.   225.   477.      0     0      265.        NA
##  6 1971-12-12          287.   350.   556.      0     0      207.        NA
##  7 1972-12-12          234.   145.   316.      0     0      111.        NA
##  8 1973-12-12          231.   122.   298.      0     0      130.        NA
##  9 1974-12-12          179.    99.1  259.      7.65  7.65    52.0       NA
## 10 1975-12-12          156.   111.   269.      6.46  6.46    72.5       NA
## # … with 74 more rows
```
…
